{
    "AWSTemplateFormatVersion" : "2010-09-09",
  
    "Description" : "CloudFormation template for Momcorp RDS instance",
  
    "Parameters": {
      "DBUser": {
        "NoEcho": "true",
        "Description" : "The database admin account username",
        "Type": "String",
        "MinLength": "1",
        "MaxLength": "16",
        "AllowedPattern" : "[a-zA-Z][a-zA-Z0-9]*",
        "ConstraintDescription" : "must begin with a letter and contain only alphanumeric characters."
      },
  
      "DBPassword": {
        "NoEcho": "true",
        "Description" : "The database admin account password",
        "Type": "String",
        "MinLength": "8",
        "MaxLength": "41",
        "AllowedPattern" : "[a-zA-Z0-9]*",
        "ConstraintDescription" : "must contain only alphanumeric characters."
      }
    },
  
    "Resources" : {
      "MomcorpDB" : {
        "Type" : "AWS::RDS::DBInstance",
        "Properties" : {
          "AllocatedStorage" : "10",
          "DBInstanceClass" : "db.t2.small",
          "DeletionProtection" : "true",
          "Engine" : "MySQL",
          "MasterUsername" : { "Ref" : "DBUser" },
          "MasterUserPassword" : { "Ref" : "DBPassword" },
          "PubliclyAccessible": "true",
          "Tags": [
              {
                  "Key": "Project",
                  "Value": "Momcorp"
              }
          ]
        }
      }
    },

    "Outputs": {
        "InstanceId": {
            "Description": "InstanceId of the newly created RDS Instance",
            "Value": {
                "Ref": "MomcorpDB"
            }
        }
    }
  }